{
  "C:\\Users\\Chao\\android-sdks\\platforms\\android-19\\android.jar": {
    "location": "C:\\Users\\Chao\\android-sdks\\platforms\\android-19\\android.jar",
    "status": "UNRESOLVED",
    "error": "No call model found for \u0027C:\\Users\\Chao\\android-sdks\\platforms\\android-19\\android.jar\u0027. Neither fingerprint \u0027e8f132406a3a24842242815287e32bb1d7ed0b97\u0027 nor symbolic name \u0027android\u0027 are known."
  },
  "C:\\Users\\Chao\\Documents\\spring-android-project\\project\\AppFinancialPlanning\\gen": {
    "location": "C:\\Users\\Chao\\Documents\\spring-android-project\\project\\AppFinancialPlanning\\gen",
    "status": "UNRESOLVED",
    "error": "No class path info available for \u0027C:\\Users\\Chao\\Documents\\spring-android-project\\project\\AppFinancialPlanning\\gen\u0027. Skipped."
  },
  "C:\\Users\\Chao\\Documents\\spring-android-project\\project\\AppFinancialPlanning\\src": {
    "location": "C:\\Users\\Chao\\Documents\\spring-android-project\\project\\AppFinancialPlanning\\src",
    "status": "UNRESOLVED",
    "error": "No class path info available for \u0027C:\\Users\\Chao\\Documents\\spring-android-project\\project\\AppFinancialPlanning\\src\u0027. Skipped."
  }
}