<?xml version="1.0" encoding="UTF-8"?>
<session version="1.0">
<refactoring comment="Delete resource &apos;AppFinancialPlanning&apos;" deleteContents="false" description="Delete resource &apos;AppFinancialPlanning&apos;" element1="/AppFinancialPlanning" flags="7" id="org.eclipse.ltk.core.refactoring.delete.resources" resources="1" stamp="1394474350762"/>
</session>