[
  {
    "symbolicName": "android-support-v4",
    "version": {
      "major": -1,
      "minor": -1,
      "micro": -1,
      "qualifier": ""
    },
    "jarFileFingerprint": "db0f122c99ef9f90dbab3fada6d191f2880cbb8e",
    "jarFileModificationDate": "2014-04-06T16:58:49.613-04:00",
    "location": "C:\\Users\\Chao\\Documents\\spring-android-project\\project\\AppFinancialPlanning\\libs\\android-support-v4.jar",
    "javaRuntime": false
  },
  {
    "symbolicName": "junit",
    "version": {
      "major": -1,
      "minor": -1,
      "micro": -1,
      "qualifier": ""
    },
    "jarFileFingerprint": "4e031bb61df09069aeb2bffb4019e7a5034a4ee0",
    "jarFileModificationDate": "2013-05-17T12:05:12-04:00",
    "location": "F:\\Software\\eclipse\\plugins\\org.junit_4.11.0.v201303080030\\junit.jar",
    "javaRuntime": false
  },
  {
    "symbolicName": "android",
    "version": {
      "major": -1,
      "minor": -1,
      "micro": -1,
      "qualifier": ""
    },
    "jarFileFingerprint": "e8f132406a3a24842242815287e32bb1d7ed0b97",
    "jarFileModificationDate": "2014-01-20T10:38:58.163-05:00",
    "location": "C:\\Users\\Chao\\android-sdks\\platforms\\android-19\\android.jar",
    "javaRuntime": false
  },
  {
    "symbolicName": "org.hamcrest.core",
    "version": {
      "major": 1,
      "minor": 3,
      "micro": 0,
      "qualifier": "v201303031735"
    },
    "jarFileFingerprint": "5ed9fe32ab1d2b18bec7cac0a044090100f327ba",
    "jarFileModificationDate": "2013-09-19T05:07:16-04:00",
    "location": "F:\\Software\\eclipse\\plugins\\org.hamcrest.core_1.3.0.v201303031735.jar",
    "javaRuntime": false
  }
]